Name,Data,Timestamp
10400_2E Occ Sensor BV Trend Archive,1,02/09/2014 15:55
10400_2E Occ Sensor BV Trend Archive,0,02/09/2014 16:09
10400_2E Occ Sensor BV Trend Archive,1,03/09/2014 8:09
10400_2E Occ Sensor BV Trend Archive,0,03/09/2014 13:29
10400_2E Occ Sensor BV Trend Archive,1,03/09/2014 14:13
10400_2E Occ Sensor BV Trend Archive,0,03/09/2014 14:47
10400_2E Occ Sensor BV Trend Archive,1,03/09/2014 18:45
10400_2E Occ Sensor BV Trend Archive,0,03/09/2014 18:58
10400_2E Occ Sensor BV Trend Archive,1,04/09/2014 10:10
10400_2E Occ Sensor BV Trend Archive,0,04/09/2014 10:31
